Olympics Group Project: Assessing the ‘Host Country Advantage’ in the Olympics – STA 9750 2024 Submission Material
…
Logistic Regression

Code

lr_new <- logistic_reg()
lr_fit <- fit(lr_new, host ~ ., data = medal_count_with_hosts)
lr_summary <- tidy(lr_fit)

lr_summary

# A tibble: 158 × 5
   term           estimate   std.error   statistic  p.value
   <chr>             <dbl>       <dbl>       <dbl>    <dbl>
 1 (Intercept)     38.6    20666.       0.00187    0.999   
 2 year            -0.0299     0.00811 -3.69       0.000223
 3 country_nocAHO  -0.675  35800.      -0.0000188  1.00    
 4 country_nocAIN   0.263  35800.       0.00000733 1.00    
 5 country_nocALB   0.403  35800.       0.0000113  1.00    
 6 country_nocALG  -0.295  23071.      -0.0000128  1.00    
 7 country_nocARG  -0.865  21856.      -0.0000396  1.00    
 8 country_nocARM  -0.0746 23413.      -0.00000319 1.00    
 9 country_nocAUS  17.4    20666.       0.000841   0.999   
10 country_nocAUT  17.2    20666.       0.000832   0.999   
# ℹ 148 more rows
…
